Assignment 3:
…
Assignment 3:

Pendling.

    Author

             Harald Vika 

    Published

      Monday 8 Dec, 2025

# A tibble: 27 x 2
   knr   knavn          
   <chr> <chr>          
 1 1102  Sandnes (-2019)
 2 1103  Stavanger      
 3 1108  Nye-Sandnes    
 4 1124  Sola           
 5 1127  Randaberg      
 6 1120  Klepp          
 7 1122  Gjesdal        
 8 1121  Time           
 9 1119  Hå             
10 1144  Kvitsøy        
# i 17 more rows
…
    },
    {
      "code": "Tid",
      "selection": {
        "filter": "item",
        "values": ["2000", "2023", "2024"]
      }
    }
  ],
  "response": {
    "format": "json-stat2"
  }
} 

# A tibble: 529,713 x 6
  aar   akom  akom_navn bkom  bkom_navn       pendlere
  <chr> <chr> <chr>     <chr> <chr>              <int>
1 2002  k3101 Halden    k1102 Sandnes (-2019)        0
2 2003  k3101 Halden    k1102 Sandnes (-2019)        0
3 2004  k3101 Halden    k1102 Sandnes (-2019)        0
4 2005  k3101 Halden    k1102 Sandnes (-2019)        0
5 2006  k3101 Halden    k1102 Sandnes (-2019)        0
# i 529,708 more rows

# A tibble: 529,713 x 6
  aar   akom  akom_navn       bkom  bkom_navn pendlere
  <chr> <chr> <chr>           <chr> <chr>        <int>
1 2002  k1102 Sandnes (-2019) k3101 Halden           0
2 2003  k1102 Sandnes (-2019) k3101 Halden           0
3 2004  k1102 Sandnes (-2019) k3101 Halden           0
4 2005  k1102 Sandnes (-2019) k3101 Halden           0
5 2006  k1102 Sandnes (-2019) k3101 Halden           0
# i 529,708 more rows

Komunesammenslåing

 [1] "k1124" "k1127" "k1120" "k1122" "k1121" "k1119" "k1144" "k1130" "k1106"
[10] "k1146" "k1149" "k1145" "k1133" "k1134" "k1135" "k1102" "k4611" "k4612"

# A tibble: 9,660 x 6
  aar   akom  akom_navn bkom  bkom_navn pendlere
  <chr> <chr> <chr>     <chr> <chr>        <int>
1 2002  k1103 Stavanger k1103 Stavanger    43142
2 2002  k1103 Stavanger k1106 Haugesund      347
3 2002  k1103 Stavanger k1108 Sandnes       8826
4 2002  k1103 Stavanger k1119 Hå             637
5 2002  k1103 Stavanger k1120 Klepp         1187
# i 9,655 more rows

# A tibble: 9,660 x 6
  aar   akom  akom_navn bkom  bkom_navn pendlere
  <chr> <chr> <chr>     <chr> <chr>        <int>
1 2002  k1103 Stavanger k1103 Stavanger    43142
2 2002  k1103 Stavanger k1106 Haugesund      347
3 2002  k1103 Stavanger k1108 Sandnes       8826
4 2002  k1103 Stavanger k1119 Hå             637
5 2002  k1103 Stavanger k1120 Klepp         1187
# i 9,655 more rows
…
Bor i Bokna – jobber hvor som helst

# A tibble: 23 x 2
   aar   bBFjHL
   <chr>  <int>
 1 2002  184466
 2 2003  184828
 3 2004  187796
 4 2005  193779
 5 2006  204477
 6 2007  215370
 7 2008  221464
 8 2009  220540
 9 2010  224026
10 2011  230410
# i 13 more rows

Bor i RAL – jobber i Bokna

# A tibble: 23 x 2
   aar   bRALjBF
   <chr>   <int>
 1 2002    10516
 2 2003     9332
 3 2004     9438
 4 2005     9636
 5 2006    12295
 6 2007    13660
 7 2008    13926
 8 2009    13485
 9 2010    13927
10 2011    15444
# i 13 more rows

Bor og jobber i RAL

# A tibble: 23 x 6
  aar   akom  akom_navn bkom  bkom_navn pendlere
  <chr> <chr> <chr>     <chr> <chr>        <int>
1 2002  k9999 RAL       k9999 RAL        2072018
2 2003  k9999 RAL       k9999 RAL        2065840
3 2004  k9999 RAL       k9999 RAL        2076766
4 2005  k9999 RAL       k9999 RAL        2104585
5 2006  k9999 RAL       k9999 RAL        2172228
# i 18 more rows
…
legge til totaler per bosted og arbeidssted

[1] 11109     6

[1] "aar"       "akom"      "akom_navn" "bkom"      "bkom_navn" "pendlere" 

# A tibble: 11,109 x 6
  aar   akom  akom_navn bkom  bkom_navn pendlere
  <chr> <chr> <chr>     <chr> <chr>        <int>
1 2002  k1103 Stavanger k1103 Stavanger    43142
2 2002  k1103 Stavanger k1106 Haugesund      347
3 2002  k1103 Stavanger k1108 Sandnes       8826
4 2002  k1103 Stavanger k1119 Hå             637
5 2002  k1103 Stavanger k1120 Klepp         1187
# i 11,104 more rows
…
Figure 1

# A tibble: 22 x 4
      år kommune_nr kommune    andel
   <int> <chr>      <chr>      <dbl>
 1  2023 k9999      RAL         99.2
 2  2023 k1135      Sauda       81.4
 3  2023 k1134      Suldal      80.3
 4  2023 k1133      Hjelmeland  72.5
 5  2023 k1160      Vindafjord  69.4
 6  2023 k1103      Stavanger   68.1
 7  2023 k1106      Haugesund   64.7
 8  2023 k4611      Etne        62.5
 9  2023 k1130      Strand      59.3
10  2023 k1149      Karmøy      56.3
# i 12 more rows
…
